{
    "display_season_title": "true",
    "deco_color": "lightcoral",
    "poster_tmdb": "w342",
    "backdrop_tmdb": "w1280",
    "active-view": "false",
    "history-view": "true",
    "tmdb_account": "false",
    "meta-view": "false",
    "api_tmdb": "b7cf9324cbeb6f4fb811144aa9397093",
    "tmdb_lang": "ar",
    "tmdb_session": "false",
    "information-view": "false",
    "display_info_file": "false",
    "bstoken": "",
    "use_cloudbypass": "false",
    "Public_Flaresolverr": "false",
    "cloudbypass": "0",
    "ipaddress": "127.0.0.1",
    "rapidapi": "d049abd94bmshe0fbd8644ee43d0p1cbebbjsne4a03858c3bb"
}